Handle,Title,Body (HTML),Vendor,Type,Tags,Published,Option1 Name,Option1 Value,Option2 Name,Option2 Value,Option3 Name,Option3 Value,Variant SKU,Variant Grams,Variant Inventory Tracker,Variant Inventory Qty,Variant Inventory Policy,Variant Fulfillment Service,Variant Price,Variant Compare At Price,Variant Requires Shipping,Variant Taxable,Variant Barcode,Image Src,Image Position,Image Alt Text,Gift Card,SEO Title,SEO Description,Google Shopping / Google Product Category,Google Shopping / Gender,Google Shopping / Age Group,Google Shopping / MPN,Google Shopping / AdWords Grouping,Google Shopping / AdWords Labels,Google Shopping / Condition,Google Shopping / Custom Product,Google Shopping / Custom Label 0,Google Shopping / Custom Label 1,Google Shopping / Custom Label 2,Google Shopping / Custom Label 3,Google Shopping / Custom Label 4,Variant Image,Variant Weight Unit,Variant Tax Code
heavy-duty-wool-bag,Heavy Duty Wool Bag,"<p>Quas et qui voluptas qui possimus reiciendis ut. Voluptate culpa autem nihil iste ut. Alias qui adipisci quia at nostrum quis. Voluptatem est nam quia iure voluptas. Nisi veritatis ut. Itaque excepturi harum cum corporis autem tempore.</p><p>Quas et qui voluptas qui possimus reiciendis ut. Lorem ipsum dolor sit amet, consectetur adipisicing elit. Ipsa aliquid, eaque ab voluptatibus quos autem non cupiditate nihil harum at.</p>",ETQ.,Women,"bottoms, dresses, tops",TRUE,Title,xs,,,,,,257,,0,deny,manual,46.43,,TRUE,TRUE,,https://cdn.shopify.com/s/files/1/1612/4019/products/caughley-product-placeholder_c8ef2c2c-d04e-4f05-90dd-f9fe44412fb9.jpg?v=1489836224,1,,FALSE,,,,,,,,,,,,,,,,,kg,
heavy-duty-wool-bag,,,,,,,,sm,,,,,heavy-duty-wool-bag-small,642,,0,deny,manual,99.14,46.43,TRUE,TRUE,,https://cdn.shopify.com/s/files/1/1612/4019/products/product-overlay.jpg?v=1489879357,,,,,,,,,,,,,,,,,,,,kg,
heavy-duty-wool-bag,,,,,,,,m,,,,,heavy-duty-wool-bag-medium,561,,1,deny,manual,75.09,46.43,TRUE,TRUE,,https://cdn.shopify.com/s/files/1/1612/4019/products/product-sample-image-2.jpg?v=1489879986,,,,,,,,,,,,,,,,,,,,kg,
heavy-duty-wool-bag,,,,,,,,l,,,,,heavy-duty-wool-bag-large,667,,1,deny,manual,93.94,46.43,TRUE,TRUE,,,,,,,,,,,,,,,,,,,,,,kg,
awesome-silk-watch,Awesome Silk Watch,"<p>Quas et qui voluptas qui possimus reiciendis ut. Voluptate culpa autem nihil iste ut. Alias qui adipisci quia at nostrum quis. Voluptatem est nam quia iure voluptas. Nisi veritatis ut. Itaque excepturi harum cum corporis autem tempore.</p><p>Quas et qui voluptas qui possimus reiciendis ut. Lorem ipsum dolor sit amet, consectetur adipisicing elit. Ipsa aliquid, eaque ab voluptatibus quos autem non cupiditate nihil harum at.</p>",Merz B Shwanen,Men,"bottoms, dresses, tops",TRUE,Title,6,,,,,,495,,2,deny,manual,86.68,,TRUE,TRUE,,https://cdn.shopify.com/s/files/1/1612/4019/products/caughley-product-placeholder_c8ef2c2c-d04e-4f05-90dd-f9fe44412fb9.jpg?v=1489836224,1,,FALSE,,,,,,,,,,,,,,,,,kg,
awesome-silk-watch,,,,,,,,7,,,,,awesome-silk-watch-small,987,,9,deny,manual,43.41,86.68,TRUE,TRUE,,https://cdn.shopify.com/s/files/1/1612/4019/products/product-overlay.jpg?v=1489879357,,,,,,,,,,,,,,,,,,,,kg,
awesome-silk-watch,,,,,,,,8,,,,,awesome-silk-watch-medium,85,,2,deny,manual,5.82,86.68,TRUE,TRUE,,https://cdn.shopify.com/s/files/1/1612/4019/products/product-sample-image-2.jpg?v=1489879986,,,,,,,,,,,,,,,,,,,,kg,
awesome-silk-watch,,,,,,,,9,,,,,awesome-silk-watch-large,151,,2,deny,manual,56.63,86.68,TRUE,TRUE,,,,,,,,,,,,,,,,,,,,,,kg,
intelligent-silk-bottle,Intelligent Silk Bottle,"<p>Quas et qui voluptas qui possimus reiciendis ut. Voluptate culpa autem nihil iste ut. Alias qui adipisci quia at nostrum quis. Voluptatem est nam quia iure voluptas. Nisi veritatis ut. Itaque excepturi harum cum corporis autem tempore.</p><p>Quas et qui voluptas qui possimus reiciendis ut. Lorem ipsum dolor sit amet, consectetur adipisicing elit. Ipsa aliquid, eaque ab voluptatibus quos autem non cupiditate nihil harum at.</p>",SNS Hearning,Women,"bottoms, dresses, tops",TRUE,Title,xs,,,,,,199,,4,deny,manual,42.22,,TRUE,TRUE,,https://cdn.shopify.com/s/files/1/1612/4019/products/caughley-product-placeholder_c8ef2c2c-d04e-4f05-90dd-f9fe44412fb9.jpg?v=1489836224,1,,FALSE,,,,,,,,,,,,,,,,,kg,
intelligent-silk-bottle,,,,,,,,sm,,,,,intelligent-silk-bottle-small,106,,1,deny,manual,39.07,42.22,TRUE,TRUE,,https://cdn.shopify.com/s/files/1/1612/4019/products/product-overlay.jpg?v=1489879357,,,,,,,,,,,,,,,,,,,,kg,
intelligent-silk-bottle,,,,,,,,m,,,,,intelligent-silk-bottle-medium,259,,1,deny,manual,26.71,42.22,TRUE,TRUE,,https://cdn.shopify.com/s/files/1/1612/4019/products/product-sample-image-2.jpg?v=1489879986,,,,,,,,,,,,,,,,,,,,kg,
intelligent-silk-bottle,,,,,,,,l,,,,,intelligent-silk-bottle-large,70,,0,deny,manual,4.3,42.22,TRUE,TRUE,,,,,,,,,,,,,,,,,,,,,,kg,
durable-plastic-keyboard,Durable Plastic Keyboard,"<p>Quas et qui voluptas qui possimus reiciendis ut. Voluptate culpa autem nihil iste ut. Alias qui adipisci quia at nostrum quis. Voluptatem est nam quia iure voluptas. Nisi veritatis ut. Itaque excepturi harum cum corporis autem tempore.</p><p>Quas et qui voluptas qui possimus reiciendis ut. Lorem ipsum dolor sit amet, consectetur adipisicing elit. Ipsa aliquid, eaque ab voluptatibus quos autem non cupiditate nihil harum at.</p>",Honesty by Caughley,Men,"bottoms, dresses, outerwear",TRUE,Title,6,,,,,,168,,3,deny,manual,16.85,,TRUE,TRUE,,https://cdn.shopify.com/s/files/1/1612/4019/products/caughley-product-placeholder_c8ef2c2c-d04e-4f05-90dd-f9fe44412fb9.jpg?v=1489836224,1,,FALSE,,,,,,,,,,,,,,,,,kg,
durable-plastic-keyboard,,,,,,,,7,,,,,durable-plastic-keyboard-small,27,,5,deny,manual,4.45,16.85,TRUE,TRUE,,https://cdn.shopify.com/s/files/1/1612/4019/products/product-overlay.jpg?v=1489879357,,,,,,,,,,,,,,,,,,,,kg,
durable-plastic-keyboard,,,,,,,,8,,,,,durable-plastic-keyboard-medium,174,,1,deny,manual,51.49,16.85,TRUE,TRUE,,https://cdn.shopify.com/s/files/1/1612/4019/products/product-sample-image-2.jpg?v=1489879986,,,,,,,,,,,,,,,,,,,,kg,
durable-plastic-keyboard,,,,,,,,9,,,,,durable-plastic-keyboard-large,867,,4,deny,manual,28.44,16.85,TRUE,TRUE,,,,,,,,,,,,,,,,,,,,,,kg,
incredible-copper-shoes,Incredible Copper Shoes,"<p>Quas et qui voluptas qui possimus reiciendis ut. Voluptate culpa autem nihil iste ut. Alias qui adipisci quia at nostrum quis. Voluptatem est nam quia iure voluptas. Nisi veritatis ut. Itaque excepturi harum cum corporis autem tempore.</p><p>Quas et qui voluptas qui possimus reiciendis ut. Lorem ipsum dolor sit amet, consectetur adipisicing elit. Ipsa aliquid, eaque ab voluptatibus quos autem non cupiditate nihil harum at.</p>",Caughley x Mark Antonio,Women,"bottoms, dresses, outerwear",TRUE,Title,xs,,,,,,516,,3,deny,manual,81.73,,TRUE,TRUE,,https://cdn.shopify.com/s/files/1/1612/4019/products/caughley-product-placeholder_c8ef2c2c-d04e-4f05-90dd-f9fe44412fb9.jpg?v=1489836224,1,,FALSE,,,,,,,,,,,,,,,,,kg,
incredible-copper-shoes,,,,,,,,sm,,,,,incredible-copper-shoes-small,117,,2,deny,manual,50.69,81.73,TRUE,TRUE,,https://cdn.shopify.com/s/files/1/1612/4019/products/product-overlay.jpg?v=1489879357,,,,,,,,,,,,,,,,,,,,kg,
incredible-copper-shoes,,,,,,,,m,,,,,incredible-copper-shoes-medium,952,,9,deny,manual,26.97,81.73,TRUE,TRUE,,https://cdn.shopify.com/s/files/1/1612/4019/products/product-sample-image-2.jpg?v=1489879986,,,,,,,,,,,,,,,,,,,,kg,
incredible-copper-shoes,,,,,,,,l,,,,,incredible-copper-shoes-large,705,,1,deny,manual,57.17,81.73,TRUE,TRUE,,,,,,,,,,,,,,,,,,,,,,kg,
durable-wool-lamp,Durable Wool Lamp,"<p>Quas et qui voluptas qui possimus reiciendis ut. Voluptate culpa autem nihil iste ut. Alias qui adipisci quia at nostrum quis. Voluptatem est nam quia iure voluptas. Nisi veritatis ut. Itaque excepturi harum cum corporis autem tempore.</p><p>Quas et qui voluptas qui possimus reiciendis ut. Lorem ipsum dolor sit amet, consectetur adipisicing elit. Ipsa aliquid, eaque ab voluptatibus quos autem non cupiditate nihil harum at.</p>",Ancient Greek Sandals,Men,"outerwear, sale",TRUE,Title,xs,,,,,,470,,7,deny,manual,22.82,,TRUE,TRUE,,https://cdn.shopify.com/s/files/1/1612/4019/products/caughley-product-placeholder_c8ef2c2c-d04e-4f05-90dd-f9fe44412fb9.jpg?v=1489836224,1,,FALSE,,,,,,,,,,,,,,,,,kg,
durable-wool-lamp,,,,,,,,sm,,,,,durable-wool-lamp-small,983,,2,deny,manual,32.26,22.82,TRUE,TRUE,,https://cdn.shopify.com/s/files/1/1612/4019/products/product-overlay.jpg?v=1489879357,,,,,,,,,,,,,,,,,,,,kg,
durable-wool-lamp,,,,,,,,m,,,,,durable-wool-lamp-medium,780,,4,deny,manual,73.63,22.82,TRUE,TRUE,,https://cdn.shopify.com/s/files/1/1612/4019/products/product-sample-image-2.jpg?v=1489879986,,,,,,,,,,,,,,,,,,,,kg,
durable-wool-lamp,,,,,,,,l,,,,,durable-wool-lamp-large,976,,1,deny,manual,19.88,22.82,TRUE,TRUE,,,,,,,,,,,,,,,,,,,,,,kg,
heavy-duty-silk-keyboard,Heavy Duty Silk Keyboard,"<p>Quas et qui voluptas qui possimus reiciendis ut. Voluptate culpa autem nihil iste ut. Alias qui adipisci quia at nostrum quis. Voluptatem est nam quia iure voluptas. Nisi veritatis ut. Itaque excepturi harum cum corporis autem tempore.</p><p>Quas et qui voluptas qui possimus reiciendis ut. Lorem ipsum dolor sit amet, consectetur adipisicing elit. Ipsa aliquid, eaque ab voluptatibus quos autem non cupiditate nihil harum at.</p>",Organic John Patrick,Women,"bottoms, dresses, outerwear, sale, tops",TRUE,Size,xs,,,,,,674,,2,deny,manual,62.18,,TRUE,TRUE,,https://cdn.shopify.com/s/files/1/1612/4019/products/caughley-product-placeholder_c8ef2c2c-d04e-4f05-90dd-f9fe44412fb9.jpg?v=1489836224,1,,FALSE,,,,,,,,,,,,,,,,,kg,
heavy-duty-silk-keyboard,,,,,,,,sm,,,,,heavy-duty-silk-keyboard-small,457,,2,deny,manual,31.67,62.18,TRUE,TRUE,,https://cdn.shopify.com/s/files/1/1612/4019/products/product-overlay.jpg?v=1489879357,,,,,,,,,,,,,,,,,,,,kg,
heavy-duty-silk-keyboard,,,,,,,,m,,,,,heavy-duty-silk-keyboard-medium,754,,7,deny,manual,92.37,62.18,TRUE,TRUE,,https://cdn.shopify.com/s/files/1/1612/4019/products/product-sample-image-2.jpg?v=1489879986,,,,,,,,,,,,,,,,,,,,kg,
heavy-duty-silk-keyboard,,,,,,,,l,,,,,heavy-duty-silk-keyboard-large,700,,0,deny,manual,15.38,62.18,TRUE,TRUE,,,,,,,,,,,,,,,,,,,,,,kg,
small-steel-coat,Small Steel Coat,"<p>Quas et qui voluptas qui possimus reiciendis ut. Voluptate culpa autem nihil iste ut. Alias qui adipisci quia at nostrum quis. Voluptatem est nam quia iure voluptas. Nisi veritatis ut. Itaque excepturi harum cum corporis autem tempore.</p><p>Quas et qui voluptas qui possimus reiciendis ut. Lorem ipsum dolor sit amet, consectetur adipisicing elit. Ipsa aliquid, eaque ab voluptatibus quos autem non cupiditate nihil harum at.</p>",Only NY,Women,"dresses, outerwear, sale, tops",TRUE,Size,6,,,,,,862,,7,deny,manual,30.42,,TRUE,TRUE,,https://cdn.shopify.com/s/files/1/1612/4019/products/caughley-product-placeholder_c8ef2c2c-d04e-4f05-90dd-f9fe44412fb9.jpg?v=1489836224,1,,FALSE,,,,,,,,,,,,,,,,,kg,
small-steel-coat,,,,,,,,7,,,,,small-steel-coat-small,176,,6,deny,manual,13.74,30.42,TRUE,TRUE,,https://cdn.shopify.com/s/files/1/1612/4019/products/product-overlay.jpg?v=1489879357,,,,,,,,,,,,,,,,,,,,kg,
small-steel-coat,,,,,,,,8,,,,,small-steel-coat-medium,288,,9,deny,manual,18.34,30.42,TRUE,TRUE,,https://cdn.shopify.com/s/files/1/1612/4019/products/product-sample-image-2.jpg?v=1489879986,,,,,,,,,,,,,,,,,,,,kg,
small-steel-coat,,,,,,,,9,,,,,small-steel-coat-large,968,,7,deny,manual,23.38,30.42,TRUE,TRUE,,,,,,,,,,,,,,,,,,,,,,kg,
incredible-granite-watch,Incredible Granite Watch,"<p>Quas et qui voluptas qui possimus reiciendis ut. Voluptate culpa autem nihil iste ut. Alias qui adipisci quia at nostrum quis. Voluptatem est nam quia iure voluptas. Nisi veritatis ut. Itaque excepturi harum cum corporis autem tempore.</p><p>Quas et qui voluptas qui possimus reiciendis ut. Lorem ipsum dolor sit amet, consectetur adipisicing elit. Ipsa aliquid, eaque ab voluptatibus quos autem non cupiditate nihil harum at.</p>",Stutterheim,Women,"dresses, outerwear, sale, tops",TRUE,Size,xs,,,,,,931,,3,deny,manual,35.04,,TRUE,TRUE,,https://cdn.shopify.com/s/files/1/1612/4019/products/caughley-product-placeholder_c8ef2c2c-d04e-4f05-90dd-f9fe44412fb9.jpg?v=1489836224,1,,FALSE,,,,,,,,,,,,,,,,,kg,
incredible-granite-watch,,,,,,,,sm,,,,,incredible-granite-watch-small,787,,3,deny,manual,69.92,35.04,TRUE,TRUE,,https://cdn.shopify.com/s/files/1/1612/4019/products/product-overlay.jpg?v=1489879357,,,,,,,,,,,,,,,,,,,,kg,
incredible-granite-watch,,,,,,,,m,,,,,incredible-granite-watch-medium,388,,9,deny,manual,71.36,35.04,TRUE,TRUE,,https://cdn.shopify.com/s/files/1/1612/4019/products/product-sample-image-2.jpg?v=1489879986,,,,,,,,,,,,,,,,,,,,kg,
incredible-granite-watch,,,,,,,,l,,,,,incredible-granite-watch-large,75,,4,deny,manual,56.77,35.04,TRUE,TRUE,,,,,,,,,,,,,,,,,,,,,,kg,
intelligent-silk-bag,Intelligent Silk Bag,"<p>Quas et qui voluptas qui possimus reiciendis ut. Voluptate culpa autem nihil iste ut. Alias qui adipisci quia at nostrum quis. Voluptatem est nam quia iure voluptas. Nisi veritatis ut. Itaque excepturi harum cum corporis autem tempore.</p><p>Quas et qui voluptas qui possimus reiciendis ut. Lorem ipsum dolor sit amet, consectetur adipisicing elit. Ipsa aliquid, eaque ab voluptatibus quos autem non cupiditate nihil harum at.</p>",Hope,Women,"bottoms, dresses, outerwear",TRUE,Size,6,,,,,,890,,9,deny,manual,70.99,,TRUE,TRUE,,https://cdn.shopify.com/s/files/1/1612/4019/products/caughley-product-placeholder_c8ef2c2c-d04e-4f05-90dd-f9fe44412fb9.jpg?v=1489836224,1,,FALSE,,,,,,,,,,,,,,,,,kg,
intelligent-silk-bag,,,,,,,,7,,,,,intelligent-silk-bag-small,900,,8,deny,manual,0.04,70.99,TRUE,TRUE,,https://cdn.shopify.com/s/files/1/1612/4019/products/product-overlay.jpg?v=1489879357,,,,,,,,,,,,,,,,,,,,kg,
intelligent-silk-bag,,,,,,,,8,,,,,intelligent-silk-bag-medium,911,,9,deny,manual,79.57,70.99,TRUE,TRUE,,https://cdn.shopify.com/s/files/1/1612/4019/products/product-sample-image-2.jpg?v=1489879986,,,,,,,,,,,,,,,,,,,,kg,
intelligent-silk-bag,,,,,,,,9,,,,,intelligent-silk-bag-large,574,,5,deny,manual,62.88,70.99,TRUE,TRUE,,,,,,,,,,,,,,,,,,,,,,kg,
small-rubber-knife,Small Rubber Knife,"<p>Quas et qui voluptas qui possimus reiciendis ut. Voluptate culpa autem nihil iste ut. Alias qui adipisci quia at nostrum quis. Voluptatem est nam quia iure voluptas. Nisi veritatis ut. Itaque excepturi harum cum corporis autem tempore.</p><p>Quas et qui voluptas qui possimus reiciendis ut. Lorem ipsum dolor sit amet, consectetur adipisicing elit. Ipsa aliquid, eaque ab voluptatibus quos autem non cupiditate nihil harum at.</p>",Our Legacy,Women,"bottoms, dresses, outerwear",TRUE,Size,6,,,,,,508,,1,deny,manual,0.19,,TRUE,TRUE,,https://cdn.shopify.com/s/files/1/1612/4019/products/caughley-product-placeholder_c8ef2c2c-d04e-4f05-90dd-f9fe44412fb9.jpg?v=1489836224,1,,FALSE,,,,,,,,,,,,,,,,,kg,
small-rubber-knife,,,,,,,,7,,,,,small-rubber-knife-small,78,,8,deny,manual,35.91,0.19,TRUE,TRUE,,https://cdn.shopify.com/s/files/1/1612/4019/products/product-overlay.jpg?v=1489879357,,,,,,,,,,,,,,,,,,,,kg,
small-rubber-knife,,,,,,,,8,,,,,small-rubber-knife-medium,869,,2,deny,manual,53.76,0.19,TRUE,TRUE,,https://cdn.shopify.com/s/files/1/1612/4019/products/product-sample-image-2.jpg?v=1489879986,,,,,,,,,,,,,,,,,,,,kg,
small-rubber-knife,,,,,,,,9,,,,,small-rubber-knife-large,40,,8,deny,manual,68.32,0.19,TRUE,TRUE,,,,,,,,,,,,,,,,,,,,,,kg,
aerodynamic-wool-bench,Aerodynamic Wool Bench,"<p>Quas et qui voluptas qui possimus reiciendis ut. Voluptate culpa autem nihil iste ut. Alias qui adipisci quia at nostrum quis. Voluptatem est nam quia iure voluptas. Nisi veritatis ut. Itaque excepturi harum cum corporis autem tempore.</p><p>Quas et qui voluptas qui possimus reiciendis ut. Lorem ipsum dolor sit amet, consectetur adipisicing elit. Ipsa aliquid, eaque ab voluptatibus quos autem non cupiditate nihil harum at.</p>",Sun Buddies,Women,"bottoms, dresses, outerwear",TRUE,Size,xs,,,,,,745,,5,deny,manual,64.34,,TRUE,TRUE,,https://cdn.shopify.com/s/files/1/1612/4019/products/caughley-product-placeholder_c8ef2c2c-d04e-4f05-90dd-f9fe44412fb9.jpg?v=1489836224,1,,FALSE,,,,,,,,,,,,,,,,,kg,
aerodynamic-wool-bench,,,,,,,,sm,,,,,aerodynamic-wool-bench-small,871,,5,deny,manual,67.35,64.34,TRUE,TRUE,,https://cdn.shopify.com/s/files/1/1612/4019/products/product-overlay.jpg?v=1489879357,2,,,,,,,,,,,,,,,,,,,kg,
aerodynamic-wool-bench,,,,,,,,m,,,,,aerodynamic-wool-bench-medium,769,,3,deny,manual,22.03,64.34,TRUE,TRUE,,https://cdn.shopify.com/s/files/1/1612/4019/products/product-sample-image-2.jpg?v=1489879986,,,,,,,,,,,,,,,,,,,,kg,
aerodynamic-wool-bench,,,,,,,,l,,,,,aerodynamic-wool-bench-large,472,,6,deny,manual,98.16,64.34,TRUE,TRUE,,,,,,,,,,,,,,,,,,,,,,kg,
lightweight-steel-bag,Lightweight Steel Bag,"<p>Quas et qui voluptas qui possimus reiciendis ut. Voluptate culpa autem nihil iste ut. Alias qui adipisci quia at nostrum quis. Voluptatem est nam quia iure voluptas. Nisi veritatis ut. Itaque excepturi harum cum corporis autem tempore.</p><p>Quas et qui voluptas qui possimus reiciendis ut. Lorem ipsum dolor sit amet, consectetur adipisicing elit. Ipsa aliquid, eaque ab voluptatibus quos autem non cupiditate nihil harum at.</p>",Saucony,Men,"outerwear, sale",TRUE,Size,6,,,,,,502,,2,deny,manual,53.31,,TRUE,TRUE,,https://cdn.shopify.com/s/files/1/1612/4019/products/caughley-product-placeholder_c8ef2c2c-d04e-4f05-90dd-f9fe44412fb9.jpg?v=1489836224,1,,FALSE,,,,,,,,,,,,,,,,,kg,
lightweight-steel-bag,,,,,,,,7,,,,,lightweight-steel-bag-small,497,,1,deny,manual,12.54,53.31,TRUE,TRUE,,https://cdn.shopify.com/s/files/1/1612/4019/products/product-overlay.jpg?v=1489879357,,,,,,,,,,,,,,,,,,,,kg,
lightweight-steel-bag,,,,,,,,8,,,,,lightweight-steel-bag-medium,623,,1,deny,manual,44.74,53.31,TRUE,TRUE,,https://cdn.shopify.com/s/files/1/1612/4019/products/product-sample-image-2.jpg?v=1489879986,,,,,,,,,,,,,,,,,,,,kg,
lightweight-steel-bag,,,,,,,,9,,,,,lightweight-steel-bag-large,669,,8,deny,manual,78.97,53.31,TRUE,TRUE,,,,,,,,,,,,,,,,,,,,,,kg,
enormous-leather-watch,Enormous Leather Watch,"<p>Quas et qui voluptas qui possimus reiciendis ut. Voluptate culpa autem nihil iste ut. Alias qui adipisci quia at nostrum quis. Voluptatem est nam quia iure voluptas. Nisi veritatis ut. Itaque excepturi harum cum corporis autem tempore.</p><p>Quas et qui voluptas qui possimus reiciendis ut. Lorem ipsum dolor sit amet, consectetur adipisicing elit. Ipsa aliquid, eaque ab voluptatibus quos autem non cupiditate nihil harum at.</p>",Portuguese Hannel,Men,"outerwear, sale",TRUE,Size,6,,,,,,569,,6,deny,manual,4.77,,TRUE,TRUE,,https://cdn.shopify.com/s/files/1/1612/4019/products/caughley-product-placeholder_c8ef2c2c-d04e-4f05-90dd-f9fe44412fb9.jpg?v=1489836224,1,,FALSE,,,,,,,,,,,,,,,,,kg,
enormous-leather-watch,,,,,,,,7,,,,,enormous-leather-watch-small,643,,1,deny,manual,27.41,4.77,TRUE,TRUE,,https://cdn.shopify.com/s/files/1/1612/4019/products/product-overlay.jpg?v=1489879357,,,,,,,,,,,,,,,,,,,,kg,
enormous-leather-watch,,,,,,,,8,,,,,enormous-leather-watch-medium,364,,8,deny,manual,77.46,4.77,TRUE,TRUE,,https://cdn.shopify.com/s/files/1/1612/4019/products/product-sample-image-2.jpg?v=1489879986,,,,,,,,,,,,,,,,,,,,kg,
enormous-leather-watch,,,,,,,,9,,,,,enormous-leather-watch-large,171,,9,deny,manual,69.21,4.77,TRUE,TRUE,,,,,,,,,,,,,,,,,,,,,,kg,
intelligent-iron-chair,Intelligent Iron Chair,"<p>Quas et qui voluptas qui possimus reiciendis ut. Voluptate culpa autem nihil iste ut. Alias qui adipisci quia at nostrum quis. Voluptatem est nam quia iure voluptas. Nisi veritatis ut. Itaque excepturi harum cum corporis autem tempore.</p><p>Quas et qui voluptas qui possimus reiciendis ut. Lorem ipsum dolor sit amet, consectetur adipisicing elit. Ipsa aliquid, eaque ab voluptatibus quos autem non cupiditate nihil harum at.</p>",Alexandra Dodds,Men,"outerwear, sale",TRUE,Size,xs,,,,,,122,,5,deny,manual,26.15,,TRUE,TRUE,,https://cdn.shopify.com/s/files/1/1612/4019/products/caughley-product-placeholder_c8ef2c2c-d04e-4f05-90dd-f9fe44412fb9.jpg?v=1489836224,1,,FALSE,,,,,,,,,,,,,,,,,kg,
intelligent-iron-chair,,,,,,,,sm,,,,,intelligent-iron-chair-small,746,,0,deny,manual,20.12,26.15,TRUE,TRUE,,https://cdn.shopify.com/s/files/1/1612/4019/products/product-overlay.jpg?v=1489879357,,,,,,,,,,,,,,,,,,,,kg,
intelligent-iron-chair,,,,,,,,m,,,,,intelligent-iron-chair-medium,102,,4,deny,manual,13.11,26.15,TRUE,TRUE,,https://cdn.shopify.com/s/files/1/1612/4019/products/product-sample-image-2.jpg?v=1489879986,,,,,,,,,,,,,,,,,,,,kg,
intelligent-iron-chair,,,,,,,,l,,,,,intelligent-iron-chair-large,364,,2,deny,manual,70.26,26.15,TRUE,TRUE,,,,,,,,,,,,,,,,,,,,,,kg,
enormous-rubber-keyboard,Enormous Rubber Keyboard,"<p>Quas et qui voluptas qui possimus reiciendis ut. Voluptate culpa autem nihil iste ut. Alias qui adipisci quia at nostrum quis. Voluptatem est nam quia iure voluptas. Nisi veritatis ut. Itaque excepturi harum cum corporis autem tempore.</p><p>Quas et qui voluptas qui possimus reiciendis ut. Lorem ipsum dolor sit amet, consectetur adipisicing elit. Ipsa aliquid, eaque ab voluptatibus quos autem non cupiditate nihil harum at.</p>",Frank & Eileen,Men,"bottoms, dresses, tops",TRUE,Size,6,,,,,,948,,5,deny,manual,27.58,,TRUE,TRUE,,https://cdn.shopify.com/s/files/1/1612/4019/products/caughley-product-placeholder_c8ef2c2c-d04e-4f05-90dd-f9fe44412fb9.jpg?v=1489836224,1,,FALSE,,,,,,,,,,,,,,,,,kg,
enormous-rubber-keyboard,,,,,,,,7,,,,,enormous-rubber-keyboard-small,574,,0,deny,manual,42.44,27.58,TRUE,TRUE,,https://cdn.shopify.com/s/files/1/1612/4019/products/product-overlay.jpg?v=1489879357,,,,,,,,,,,,,,,,,,,,kg,
enormous-rubber-keyboard,,,,,,,,8,,,,,enormous-rubber-keyboard-medium,222,,3,deny,manual,11.02,27.58,TRUE,TRUE,,https://cdn.shopify.com/s/files/1/1612/4019/products/product-sample-image-2.jpg?v=1489879986,,,,,,,,,,,,,,,,,,,,kg,
enormous-rubber-keyboard,,,,,,,,9,,,,,enormous-rubber-keyboard-large,79,,6,deny,manual,77.86,27.58,TRUE,TRUE,,,,,,,,,,,,,,,,,,,,,,kg,
ergonomic-plastic-keyboard,Ergonomic Plastic Keyboard,"<p>Quas et qui voluptas qui possimus reiciendis ut. Voluptate culpa autem nihil iste ut. Alias qui adipisci quia at nostrum quis. Voluptatem est nam quia iure voluptas. Nisi veritatis ut. Itaque excepturi harum cum corporis autem tempore.</p><p>Quas et qui voluptas qui possimus reiciendis ut. Lorem ipsum dolor sit amet, consectetur adipisicing elit. Ipsa aliquid, eaque ab voluptatibus quos autem non cupiditate nihil harum at.</p>",Citizens Of Humanity,Men,"bottoms, dresses, tops",TRUE,Size,xs,,,,,,250,,2,deny,manual,92.38,,TRUE,TRUE,,https://cdn.shopify.com/s/files/1/1612/4019/products/caughley-product-placeholder_c8ef2c2c-d04e-4f05-90dd-f9fe44412fb9.jpg?v=1489836224,1,,FALSE,,,,,,,,,,,,,,,,,kg,
ergonomic-plastic-keyboard,,,,,,,,sm,,,,,ergonomic-plastic-keyboard-small,353,,6,deny,manual,76.99,92.38,TRUE,TRUE,,https://cdn.shopify.com/s/files/1/1612/4019/products/product-overlay.jpg?v=1489879357,,,,,,,,,,,,,,,,,,,,kg,
ergonomic-plastic-keyboard,,,,,,,,m,,,,,ergonomic-plastic-keyboard-medium,27,,5,deny,manual,5.02,92.38,TRUE,TRUE,,https://cdn.shopify.com/s/files/1/1612/4019/products/product-sample-image-2.jpg?v=1489879986,,,,,,,,,,,,,,,,,,,,kg,
ergonomic-plastic-keyboard,,,,,,,,l,,,,,ergonomic-plastic-keyboard-large,874,,2,deny,manual,6.18,92.38,TRUE,TRUE,,,,,,,,,,,,,,,,,,,,,,kg,
lightweight-iron-clock,Lightweight Iron Clock,"<p>Quas et qui voluptas qui possimus reiciendis ut. Voluptate culpa autem nihil iste ut. Alias qui adipisci quia at nostrum quis. Voluptatem est nam quia iure voluptas. Nisi veritatis ut. Itaque excepturi harum cum corporis autem tempore.</p><p>Quas et qui voluptas qui possimus reiciendis ut. Lorem ipsum dolor sit amet, consectetur adipisicing elit. Ipsa aliquid, eaque ab voluptatibus quos autem non cupiditate nihil harum at.</p>",Harman Grubisa,Men,"bottoms, dresses, tops",TRUE,Size,xs,,,,,,22,,3,deny,manual,7.24,,TRUE,TRUE,,https://cdn.shopify.com/s/files/1/1612/4019/products/caughley-product-placeholder_c8ef2c2c-d04e-4f05-90dd-f9fe44412fb9.jpg?v=1489836224,1,,FALSE,,,,,,,,,,,,,,,,,kg,
lightweight-iron-clock,,,,,,,,sm,,,,,lightweight-iron-clock-small,531,,0,deny,manual,76.23,7.24,TRUE,TRUE,,https://cdn.shopify.com/s/files/1/1612/4019/products/product-overlay.jpg?v=1489879357,,,,,,,,,,,,,,,,,,,,kg,
lightweight-iron-clock,,,,,,,,m,,,,,lightweight-iron-clock-medium,896,,0,deny,manual,3.27,7.24,TRUE,TRUE,,https://cdn.shopify.com/s/files/1/1612/4019/products/product-sample-image-2.jpg?v=1489879986,,,,,,,,,,,,,,,,,,,,kg,
lightweight-iron-clock,,,,,,,,l,,,,,lightweight-iron-clock-large,395,,7,deny,manual,64.12,7.24,TRUE,TRUE,,,,,,,,,,,,,,,,,,,,,,kg,
gift-wrapping,Gift Wrapping,,igmnlt-sandbox,,,TRUE,Type,Premium Gift Wrapping,,,,,,,,0,continue,manual,5,5,FALSE,TRUE,,,,,FALSE,,,,,,,,,,,,,,,,,kg,
gift-wrapping,,,,,,,,Standard Gift Wrapping (Free),,,,,,,,0,continue,manual,0,5,FALSE,FALSE,,,,,,,,,,,,,,,,,,,,,,kg,